[ INFO] (20180205 15:18:48,983) - (lib) Configuracion - cargando el archivo de propiedades
[ INFO] (20180205 15:18:49,005) - (lib) Configuracion - ruta con archivo F:\NetBeansProjects\Develcom-0.4 - MinFinazas\DW4JDesktop/lib/lib.properties
[ INFO] (20180205 15:18:49,005) - (lib) Propiedades - propiedades cargadas {puerto=8080, ip=localhost}
[ INFO] (20180205 15:18:49,037) - (lib) AutenticaServicio - servidor localhost
[ INFO] (20180205 15:18:49,037) - (lib) AutenticaServicio - puerto 8080
[ INFO] (20180205 15:18:54,914) - Login - usuario asalmeron su estatus 1
[ INFO] (20180205 15:18:54,914) - Login - usuario asanchez su estatus 1
[ INFO] (20180205 15:18:54,914) - Login - usuario daniel su estatus 1
[ INFO] (20180205 15:18:54,914) - Login - usuario eescalona su estatus 1
[ INFO] (20180205 15:18:54,929) - Login - usuario emichelena su estatus 1
[ INFO] (20180205 15:18:54,929) - Login - usuario fgonzalez su estatus 1
[ INFO] (20180205 15:18:54,929) - Login - usuario mmoreno su estatus 1
[ INFO] (20180205 15:18:54,929) - Login - usuario nilda_blanco su estatus 1
[ INFO] (20180205 15:18:54,929) - Login - usuario pdigitalizador su estatus 1
[ INFO] (20180205 15:18:54,929) - Login - usuario rcarrillo su estatus 1
[ INFO] (20180205 15:18:54,929) - Login - usuario rfernandez su estatus 1
[ INFO] (20180205 15:18:54,929) - Login - usuario tgarrido su estatus 1
[ INFO] (20180205 15:18:54,929) - Login - usuario thais su estatus 1
[ INFO] (20180205 15:18:54,929) - Login - usuario ydiaz su estatus 1
[ INFO] (20180205 15:18:54,929) - Login - usuario ylara su estatus 1
[ INFO] (20180205 15:18:55,614) - DW4JDesktop - iniciando la aplicacion Gestor Documental bienvenido
[ INFO] (20180205 15:18:55,614) - DW4JDesktop - maximo memoria 1875378176
[ INFO] (20180205 15:18:55,614) - DW4JDesktop - memoria disponible 107558272
[ INFO] (20180205 15:18:55,614) - DW4JDesktop - total memoria 126353408
[ INFO] (20180205 15:20:00,391) - Autocompletar - posicion 11
[ INFO] (20180205 15:20:00,391) - Autocompletar - nuevo dato tgarrido
[ INFO] (20180205 15:20:00,391) - Autocompletar - dato buscado garrido
[ INFO] (20180205 15:20:03,975) - Login - ingresando el usuario tgarrido
[ INFO] (20180205 15:20:03,975) - Login - validando el usuario
[ INFO] (20180205 15:20:03,975) - (lib) IniciaSesion - Comprobando el usuario tgarrido
[ INFO] (20180205 15:20:04,206) - (lib) Configuracion - cargando el archivo de propiedades
[ INFO] (20180205 15:20:04,206) - (lib) Configuracion - ruta con archivo F:\NetBeansProjects\Develcom-0.4 - MinFinazas\DW4JDesktop/lib/lib.properties
[ INFO] (20180205 15:20:04,206) - (lib) Propiedades - propiedades cargadas {puerto=8080, ip=localhost}
[ INFO] (20180205 15:20:04,206) - (lib) AutenticaServicio - servidor localhost
[ INFO] (20180205 15:20:04,206) - (lib) AutenticaServicio - puerto 8080
[ INFO] (20180205 15:20:05,360) - Login - Calidad activo true
[ INFO] (20180205 15:20:05,360) - Login - foliatura activo false
[ INFO] (20180205 15:20:05,360) - Login - creando la sesion del usuario
[ INFO] (20180205 15:20:05,360) - (lib) IniciaSesion - Creando sesion del usuario tgarrido
[ INFO] (20180205 15:20:05,391) - (lib) Configuracion - cargando el archivo de propiedades
[ INFO] (20180205 15:20:05,391) - (lib) Configuracion - ruta con archivo F:\NetBeansProjects\Develcom-0.4 - MinFinazas\DW4JDesktop/lib/lib.properties
[ INFO] (20180205 15:20:05,391) - (lib) Propiedades - propiedades cargadas {puerto=8080, ip=localhost}
[ INFO] (20180205 15:20:05,391) - (lib) AutenticaServicio - servidor localhost
[ INFO] (20180205 15:20:05,391) - (lib) AutenticaServicio - puerto 8080
[ INFO] (20180205 15:20:06,147) - Login - sesion [com.develcom.autentica.Sesion@52d1ce4c, com.develcom.autentica.Sesion@4c3f0a0e, com.develcom.autentica.Sesion@3ead443d, com.develcom.autentica.Sesion@615b20f0, com.develcom.autentica.Sesion@25cf9e7f, com.develcom.autentica.Sesion@61aeb73d, com.develcom.autentica.Sesion@158037e5]
[ INFO] (20180205 15:20:06,263) - Login - id de la sesion 17FF57402550A5170E86B9B4728BBDDB
[ INFO] (20180205 15:20:06,263) - Login - fecha y hora de inicio de la sesion 05/02/2018 - 15:50:05
[ INFO] (20180205 15:20:44,900) - Libreria - llenando lista de libreria
[ INFO] (20180205 15:20:44,901) - Libreria - buscando las libreria del usuario tgarrido con el perfil DIGITALIZADOR
[ INFO] (20180205 15:20:44,915) - (lib) Configuracion - cargando el archivo de propiedades
[ INFO] (20180205 15:20:44,916) - (lib) Configuracion - ruta con archivo F:\NetBeansProjects\Develcom-0.4 - MinFinazas\DW4JDesktop/lib/lib.properties
[ INFO] (20180205 15:20:44,917) - (lib) Propiedades - propiedades cargadas {puerto=8080, ip=localhost}
[ INFO] (20180205 15:20:44,917) - (lib) AutenticaServicio - servidor localhost
[ INFO] (20180205 15:20:44,917) - (lib) AutenticaServicio - puerto 8080
[ INFO] (20180205 15:20:45,811) - Libreria - tamaño perfiles 1
[ INFO] (20180205 15:20:45,812) - CentraVentanas - sistema operativo Windows 8.1
[ INFO] (20180205 15:20:47,724) - Libreria - llenando lista de categorias
[ INFO] (20180205 15:20:48,390) - Libreria - armando informacion del expediente
[ INFO] (20180205 15:20:48,399) - Libreria - seleccion la libreria 01 - EXPEDIENTES DE PAGO DE PRESTACIONES SOCIALES id 107
[ INFO] (20180205 15:20:48,399) - Libreria - seleccion la categoria 0000-EHP-FDPS (EXPEDIENTES HISTORICOS DE PAGOS DEL FONDO DE PRESTACIONES SOCIALES) id 170
[ INFO] (20180205 15:20:49,246) - DigitalizaDocumento - llenado listado de subCategorias
[ INFO] (20180205 15:20:49,307) - (lib) AdministracionBusqueda - buscar subCategoria
[ INFO] (20180205 15:20:49,308) - (lib) AdministracionBusqueda - idCategoria 170 idSubCategoria 0 subCategoria null
[ INFO] (20180205 15:20:49,368) - (lib) Configuracion - cargando el archivo de propiedades
[ INFO] (20180205 15:20:49,368) - (lib) Configuracion - ruta con archivo F:\NetBeansProjects\Develcom-0.4 - MinFinazas\DW4JDesktop/lib/lib.properties
[ INFO] (20180205 15:20:49,369) - (lib) Propiedades - propiedades cargadas {puerto=8080, ip=localhost}
[ INFO] (20180205 15:20:49,370) - (lib) AdministracionBusquedasServicio - servidor localhost
[ INFO] (20180205 15:20:49,370) - (lib) AdministracionBusquedasServicio - puerto 8080
[ INFO] (20180205 15:20:50,971) - CentraVentanas - sistema operativo Windows 8.1
[ INFO] (20180205 15:22:33,233) - DigitalizaDocumento - expediente a digitalizar 6450647
[ INFO] (20180205 15:22:33,248) - MostrarProceso - recibiendo el mensaje Verificando el Expediente 6450647
[ INFO] (20180205 15:22:33,571) - MostrarProceso - iniciando el dialogo de espera
[ INFO] (20180205 15:22:33,598) - DigitalizaDocumento - expediente a digitalizar 6450647
[ INFO] (20180205 15:22:33,599) - DigitalizaDocumento - verificando que el expediente 6450647 exista
[ INFO] (20180205 15:22:33,636) - Progreso - mensaje nuevo Verificando el Expediente 6450647
[ INFO] (20180205 15:22:33,636) - Progreso - agregando nuevo mensaje
[ INFO] (20180205 15:22:33,655) - (lib) GestionExpediente - comprueba si existe un expediente
[ INFO] (20180205 15:22:33,655) - (lib) GestionExpediente - idExpediente 6450647
[ INFO] (20180205 15:22:33,655) - (lib) GestionExpediente - idCategoria 170
[ INFO] (20180205 15:22:33,655) - (lib) GestionExpediente - idLibreria 107
[ INFO] (20180205 15:22:33,683) - (lib) Configuracion - cargando el archivo de propiedades
[ INFO] (20180205 15:22:33,683) - (lib) Configuracion - ruta con archivo F:\NetBeansProjects\Develcom-0.4 - MinFinazas\DW4JDesktop/lib/lib.properties
[ INFO] (20180205 15:22:33,683) - (lib) Propiedades - propiedades cargadas {puerto=8080, ip=localhost}
[ INFO] (20180205 15:22:33,683) - (lib) ExpedienteServicio - servidor localhost
[ INFO] (20180205 15:22:33,684) - (lib) ExpedienteServicio - puerto 8080
[ INFO] (20180205 15:22:37,524) - DigitalizaDocumento - seleccion la subCategoria 01.- EXPEDIENTE HISTORICO
[ INFO] (20180205 15:22:50,865) - DigitalizaDocumento - el expediente 6450647 no existe se creara
[ INFO] (20180205 15:22:50,866) - DigitalizaDocumento - libreria 107 - 01 - EXPEDIENTES DE PAGO DE PRESTACIONES SOCIALES
[ INFO] (20180205 15:22:50,866) - DigitalizaDocumento - categoria 170 - 0000-EHP-FDPS (EXPEDIENTES HISTORICOS DE PAGOS DEL FONDO DE PRESTACIONES SOCIALES)
[ INFO] (20180205 15:22:50,866) - DigitalizaDocumento - subCategoria 259 - 01.- EXPEDIENTE HISTORICO
[ INFO] (20180205 15:22:51,159) - ListaExpediente - armando el data table
[ INFO] (20180205 15:22:51,162) - ListaExpediente - clave primaria Cedula de identidad de empleado dato 6450647
[ INFO] (20180205 15:22:51,162) - ListaExpediente - clave Sec1 Numero de solicitud u oficio dato 264
[ INFO] (20180205 15:22:51,162) - ListaExpediente - clave Sec2 Apellidos y nombres de empleado dato CANA C JESUS E
[ INFO] (20180205 15:22:51,163) - ListaExpediente - clave Sec3 Organismo principal dato MINISTERIO DEL PODER POPULAR PARA RELACIONES INTERIORES Y JUSTICIA PAZ
[ INFO] (20180205 15:22:51,217) - CentraVentanas - sistema operativo Windows 8.1
[ INFO] (20180205 15:23:16,000) - DigitalizaDocumento - expediente a digitalizar 6450647
[ INFO] (20180205 15:23:16,005) - MostrarProceso - recibiendo el mensaje Verificando el Expediente 6450647
[ INFO] (20180205 15:23:16,033) - MostrarProceso - iniciando el dialogo de espera
[ INFO] (20180205 15:23:16,033) - DigitalizaDocumento - expediente a digitalizar 6450647
[ INFO] (20180205 15:23:16,034) - DigitalizaDocumento - verificando que el expediente 6450647 exista
[ INFO] (20180205 15:23:16,039) - Progreso - mensaje nuevo Verificando el Expediente 6450647
[ INFO] (20180205 15:23:16,040) - Progreso - agregando nuevo mensaje
[ INFO] (20180205 15:23:16,044) - (lib) GestionExpediente - comprueba si existe un expediente
[ INFO] (20180205 15:23:16,046) - (lib) GestionExpediente - idExpediente 6450647
[ INFO] (20180205 15:23:16,047) - (lib) GestionExpediente - idCategoria 170
[ INFO] (20180205 15:23:16,047) - (lib) GestionExpediente - idLibreria 107
[ INFO] (20180205 15:23:16,058) - (lib) Configuracion - cargando el archivo de propiedades
[ INFO] (20180205 15:23:16,059) - (lib) Configuracion - ruta con archivo F:\NetBeansProjects\Develcom-0.4 - MinFinazas\DW4JDesktop/lib/lib.properties
[ INFO] (20180205 15:23:16,059) - (lib) Propiedades - propiedades cargadas {puerto=8080, ip=localhost}
[ INFO] (20180205 15:23:16,059) - (lib) ExpedienteServicio - servidor localhost
[ INFO] (20180205 15:23:16,059) - (lib) ExpedienteServicio - puerto 8080
[ INFO] (20180205 15:23:18,364) - DigitalizaDocumento - seleccion la subCategoria 01.- EXPEDIENTE HISTORICO
