[ INFO] (20180130 08:02:08,865) - (lib) Configuracion - cargando el archivo de propiedades
[ INFO] (20180130 08:02:08,882) - (lib) Configuracion - ruta con archivo F:\NetBeansProjects\Develcom-0.4 - MinFinazas\DW4JDesktop/lib/lib.properties
[ INFO] (20180130 08:02:08,892) - (lib) Propiedades - propiedades cargadas {puerto=8080, ip=localhost}
[ INFO] (20180130 08:02:08,909) - (lib) AutenticaServicio - servidor localhost
[ INFO] (20180130 08:02:08,910) - (lib) AutenticaServicio - puerto 8080
[ INFO] (20180130 08:02:15,688) - DW4JDesktop - iniciando la aplicacion Gestor Documental bienvenido
[ INFO] (20180130 08:02:15,690) - DW4JDesktop - maximo memoria 1875378176
[ INFO] (20180130 08:02:15,690) - DW4JDesktop - memoria disponible 107548864
[ INFO] (20180130 08:02:15,690) - DW4JDesktop - total memoria 126353408
[ INFO] (20180130 08:02:31,607) - Login - ingresando el usuario dwjconf
[ INFO] (20180130 08:02:31,608) - Login - validando el usuario
[ INFO] (20180130 08:02:31,613) - (lib) IniciaSesion - Comprobando el usuario dwjconf
[ INFO] (20180130 08:02:31,635) - (lib) Configuracion - cargando el archivo de propiedades
[ INFO] (20180130 08:02:31,635) - (lib) Configuracion - ruta con archivo F:\NetBeansProjects\Develcom-0.4 - MinFinazas\DW4JDesktop/lib/lib.properties
[ INFO] (20180130 08:02:31,635) - (lib) Propiedades - propiedades cargadas {puerto=8080, ip=localhost}
[ INFO] (20180130 08:02:31,636) - (lib) AutenticaServicio - servidor localhost
[ INFO] (20180130 08:02:31,636) - (lib) AutenticaServicio - puerto 8080
[ WARN] (20180130 08:02:57,037) - Login - Problemas en la consulta del usuario dwjconf
Usuario o Contraseña incorrectos
intente nuevamente o
comuniquese con el administrador del sistema
[ INFO] (20180130 08:03:49,887) - (lib) Configuracion - cargando el archivo de propiedades
[ INFO] (20180130 08:03:49,887) - (lib) Configuracion - ruta con archivo F:\NetBeansProjects\Develcom-0.4 - MinFinazas\DW4JDesktop/lib/lib.properties
[ INFO] (20180130 08:03:49,888) - (lib) Propiedades - propiedades cargadas {puerto=8080, ip=localhost}
[ INFO] (20180130 08:03:49,889) - (lib) AutenticaServicio - servidor localhost
[ INFO] (20180130 08:03:49,889) - (lib) AutenticaServicio - puerto 8080
[ INFO] (20180130 08:03:50,937) - DW4JDesktop - iniciando la aplicacion Gestor Documental bienvenido
[ INFO] (20180130 08:03:50,937) - DW4JDesktop - maximo memoria 1875378176
[ INFO] (20180130 08:03:50,937) - DW4JDesktop - memoria disponible 107548784
[ INFO] (20180130 08:03:50,938) - DW4JDesktop - total memoria 126353408
[ INFO] (20180130 08:04:04,620) - Login - ingresando el usuario dw4jconf
[ INFO] (20180130 08:04:04,620) - Login - validando el usuario
[ INFO] (20180130 08:04:04,624) - (lib) IniciaSesion - Comprobando el usuario dw4jconf
[ INFO] (20180130 08:04:04,644) - (lib) Configuracion - cargando el archivo de propiedades
[ INFO] (20180130 08:04:04,645) - (lib) Configuracion - ruta con archivo F:\NetBeansProjects\Develcom-0.4 - MinFinazas\DW4JDesktop/lib/lib.properties
[ INFO] (20180130 08:04:04,645) - (lib) Propiedades - propiedades cargadas {puerto=8080, ip=localhost}
[ INFO] (20180130 08:04:04,645) - (lib) AutenticaServicio - servidor localhost
[ INFO] (20180130 08:04:04,645) - (lib) AutenticaServicio - puerto 8080
[ INFO] (20180130 08:04:05,377) - Login - Calidad activo false
[ INFO] (20180130 08:04:05,378) - Login - foliatura activo false
[ INFO] (20180130 08:04:05,378) - Login - creando la sesion del usuario
[ INFO] (20180130 08:04:05,382) - (lib) IniciaSesion - Creando sesion del usuario dw4jconf
[ INFO] (20180130 08:04:05,422) - (lib) Configuracion - cargando el archivo de propiedades
[ INFO] (20180130 08:04:05,423) - (lib) Configuracion - ruta con archivo F:\NetBeansProjects\Develcom-0.4 - MinFinazas\DW4JDesktop/lib/lib.properties
[ INFO] (20180130 08:04:05,423) - (lib) Propiedades - propiedades cargadas {puerto=8080, ip=localhost}
[ INFO] (20180130 08:04:05,423) - (lib) AutenticaServicio - servidor localhost
[ INFO] (20180130 08:04:05,423) - (lib) AutenticaServicio - puerto 8080
[ INFO] (20180130 08:04:06,188) - Login - sesion [com.develcom.autentica.Sesion@4f74843e, com.develcom.autentica.Sesion@6a962b32]
[ INFO] (20180130 08:04:06,255) - Login - eliminado archivo documento0.pdf
[ INFO] (20180130 08:04:06,256) - Login - id de la sesion 0000D0E2EA0FA4BAD5F751918A4C8C1D
[ INFO] (20180130 08:04:06,257) - Login - fecha y hora de inicio de la sesion 30/01/2018 - 08:34:05
[ INFO] (20180130 08:04:10,447) - (lib) Configuracion - cargando el archivo de propiedades
[ INFO] (20180130 08:04:10,448) - (lib) Configuracion - ruta con archivo F:\NetBeansProjects\Develcom-0.4 - MinFinazas\DW4JDesktop/lib/lib.properties
[ INFO] (20180130 08:04:10,448) - (lib) Propiedades - propiedades cargadas {puerto=8080, ip=localhost}
[ INFO] (20180130 08:04:10,449) - (lib) MantenimientosServicio - servidor localhost
[ INFO] (20180130 08:04:10,449) - (lib) MantenimientosServicio - puerto 8080
[ INFO] (20180130 08:04:10,906) - CentraVentanas - sistema operativo Windows 8.1
[ INFO] (20180130 08:04:20,596) - (lib) Configuracion - cargando el archivo de propiedades
[ INFO] (20180130 08:04:20,596) - (lib) Configuracion - ruta con archivo F:\NetBeansProjects\Develcom-0.4 - MinFinazas\DW4JDesktop/lib/lib.properties
[ INFO] (20180130 08:04:20,597) - (lib) Propiedades - propiedades cargadas {puerto=8080, ip=localhost}
[ INFO] (20180130 08:04:20,597) - (lib) MantenimientosServicio - servidor localhost
[ INFO] (20180130 08:04:20,597) - (lib) MantenimientosServicio - puerto 8080
[ INFO] (20180130 08:04:21,076) - Mantenimiento - respuesta al realizar el mantenimiento true
[ INFO] (20180130 08:04:27,111) - (lib) Configuracion - cargando el archivo de propiedades
[ INFO] (20180130 08:04:27,111) - (lib) Configuracion - ruta con archivo F:\NetBeansProjects\Develcom-0.4 - MinFinazas\DW4JDesktop/lib/lib.properties
[ INFO] (20180130 08:04:27,112) - (lib) Propiedades - propiedades cargadas {puerto=8080, ip=localhost}
[ INFO] (20180130 08:04:27,113) - (lib) AutenticaServicio - servidor localhost
[ INFO] (20180130 08:04:27,114) - (lib) AutenticaServicio - puerto 8080
[ INFO] (20180130 08:04:27,581) - DW4JDesktop - iniciando la aplicacion Gestor Documental bienvenido
[ INFO] (20180130 08:04:27,581) - DW4JDesktop - maximo memoria 1875378176
[ INFO] (20180130 08:04:27,582) - DW4JDesktop - memoria disponible 113447896
[ INFO] (20180130 08:04:27,582) - DW4JDesktop - total memoria 126353408
[ INFO] (20180130 08:04:41,019) - Login - ingresando el usuario tr
[ INFO] (20180130 08:04:41,019) - Login - validando el usuario
[ INFO] (20180130 08:04:41,023) - (lib) IniciaSesion - Comprobando el usuario tr
[ INFO] (20180130 08:04:41,033) - (lib) Configuracion - cargando el archivo de propiedades
[ INFO] (20180130 08:04:41,033) - (lib) Configuracion - ruta con archivo F:\NetBeansProjects\Develcom-0.4 - MinFinazas\DW4JDesktop/lib/lib.properties
[ INFO] (20180130 08:04:41,034) - (lib) Propiedades - propiedades cargadas {puerto=8080, ip=localhost}
[ INFO] (20180130 08:04:41,034) - (lib) AutenticaServicio - servidor localhost
[ INFO] (20180130 08:04:41,034) - (lib) AutenticaServicio - puerto 8080
[ WARN] (20180130 08:04:45,105) - Login - Usuario no registrado en el Sistema Gestion Documental
comuniquese con el administrador del sistema
usuario: tr no encontrado en basedato (WS)
[ INFO] (20180130 08:05:12,615) - (lib) Configuracion - cargando el archivo de propiedades
[ INFO] (20180130 08:05:12,616) - (lib) Configuracion - ruta con archivo F:\NetBeansProjects\Develcom-0.4 - MinFinazas\DW4JDesktop/lib/lib.properties
[ INFO] (20180130 08:05:12,617) - (lib) Propiedades - propiedades cargadas {puerto=8080, ip=localhost}
[ INFO] (20180130 08:05:12,617) - (lib) AutenticaServicio - servidor localhost
[ INFO] (20180130 08:05:12,617) - (lib) AutenticaServicio - puerto 8080
[ INFO] (20180130 08:05:13,533) - DW4JDesktop - iniciando la aplicacion Gestor Documental bienvenido
[ INFO] (20180130 08:05:13,534) - DW4JDesktop - maximo memoria 1875378176
[ INFO] (20180130 08:05:13,534) - DW4JDesktop - memoria disponible 108226768
[ INFO] (20180130 08:05:13,534) - DW4JDesktop - total memoria 126353408
[ INFO] (20180130 08:13:30,135) - (lib) Configuracion - cargando el archivo de propiedades
[ INFO] (20180130 08:13:30,136) - (lib) Configuracion - ruta con archivo F:\NetBeansProjects\Develcom-0.4 - MinFinazas\DW4JDesktop/lib/lib.properties
[ INFO] (20180130 08:13:30,137) - (lib) Propiedades - propiedades cargadas {puerto=8080, ip=localhost}
[ INFO] (20180130 08:13:30,137) - (lib) AutenticaServicio - servidor localhost
[ INFO] (20180130 08:13:30,137) - (lib) AutenticaServicio - puerto 8080
[ INFO] (20180130 08:13:30,998) - Login - usuario asalmeron su estatus 1
[ INFO] (20180130 08:13:30,998) - Login - usuario asanchez su estatus 1
[ INFO] (20180130 08:13:30,999) - Login - usuario daniel su estatus 1
[ INFO] (20180130 08:13:30,999) - Login - usuario eescalona su estatus 1
[ INFO] (20180130 08:13:30,999) - Login - usuario emichelena su estatus 1
[ INFO] (20180130 08:13:30,999) - Login - usuario fgonzalez su estatus 1
[ INFO] (20180130 08:13:30,999) - Login - usuario mmoreno su estatus 1
[ INFO] (20180130 08:13:30,999) - Login - usuario nilda_blanco su estatus 1
[ INFO] (20180130 08:13:30,999) - Login - usuario pdigitalizador su estatus 1
[ INFO] (20180130 08:13:30,999) - Login - usuario rcarrillo su estatus 1
[ INFO] (20180130 08:13:30,999) - Login - usuario rfernandez su estatus 1
[ INFO] (20180130 08:13:30,999) - Login - usuario tgarrido su estatus 1
[ INFO] (20180130 08:13:31,000) - Login - usuario thais su estatus 1
[ INFO] (20180130 08:13:31,000) - Login - usuario ydiaz su estatus 1
[ INFO] (20180130 08:13:31,000) - Login - usuario ylara su estatus 1
[ INFO] (20180130 08:13:31,079) - DW4JDesktop - iniciando la aplicacion Gestor Documental bienvenido
[ INFO] (20180130 08:13:31,079) - DW4JDesktop - maximo memoria 1875378176
[ INFO] (20180130 08:13:31,079) - DW4JDesktop - memoria disponible 108220552
[ INFO] (20180130 08:13:31,079) - DW4JDesktop - total memoria 126353408
[ INFO] (20180130 08:13:33,054) - Autocompletar - posicion 11
[ INFO] (20180130 08:13:33,055) - Autocompletar - nuevo dato tgarrido
[ INFO] (20180130 08:13:33,056) - Autocompletar - dato buscado garrido
[ INFO] (20180130 08:13:38,120) - Login - ingresando el usuario tgarrido
[ INFO] (20180130 08:13:38,120) - Login - validando el usuario
[ INFO] (20180130 08:13:38,125) - (lib) IniciaSesion - Comprobando el usuario tgarrido
[ INFO] (20180130 08:13:38,146) - (lib) Configuracion - cargando el archivo de propiedades
[ INFO] (20180130 08:13:38,146) - (lib) Configuracion - ruta con archivo F:\NetBeansProjects\Develcom-0.4 - MinFinazas\DW4JDesktop/lib/lib.properties
[ INFO] (20180130 08:13:38,147) - (lib) Propiedades - propiedades cargadas {puerto=8080, ip=localhost}
[ INFO] (20180130 08:13:38,147) - (lib) AutenticaServicio - servidor localhost
[ INFO] (20180130 08:13:38,147) - (lib) AutenticaServicio - puerto 8080
[ WARN] (20180130 08:14:02,239) - Login - Problemas en la consulta del usuario tgarrido
Usuario o Contraseña incorrectos
intente nuevamente o
comuniquese con el administrador del sistema
[ INFO] (20180130 08:14:33,487) - Autocompletar - posicion 2
[ INFO] (20180130 08:14:33,488) - Autocompletar - nuevo dato daniel
[ INFO] (20180130 08:14:33,488) - Autocompletar - dato buscado aniel
[ INFO] (20180130 08:14:33,711) - Autocompletar - dato a buscar dw
[ INFO] (20180130 08:14:33,711) - Autocompletar - nuevo dato dw
[ INFO] (20180130 08:14:35,806) - Autocompletar - dato a buscar dw4j
[ INFO] (20180130 08:14:35,807) - Autocompletar - nuevo dato dw4j
[ INFO] (20180130 08:14:36,112) - Autocompletar - dato a buscar dw4jc
[ INFO] (20180130 08:14:36,113) - Autocompletar - nuevo dato dw4jc
[ERROR] (20180130 08:14:36,292) - Autocompletar - error al obtener la posicion del vector
java.lang.StringIndexOutOfBoundsException: String index out of range: 6
	at java.lang.String.substring(String.java:1907)
	at com.develcom.gui.tools.Autocompletar.getPosicionLista(Autocompletar.java:82)
	at com.develcom.gui.tools.Autocompletar.getTextoListaUsuario(Autocompletar.java:50)
	at com.develcom.gui.Login.txtUsuarioKeyReleased(Login.java:569)
	at com.develcom.gui.Login.access$500(Login.java:31)
	at com.develcom.gui.Login$6.keyReleased(Login.java:174)
	at java.awt.Component.processKeyEvent(Component.java:6477)
	at javax.swing.JComponent.processKeyEvent(JComponent.java:2829)
	at java.awt.Component.processEvent(Component.java:6293)
	at java.awt.Container.processEvent(Container.java:2229)
	at java.awt.Component.dispatchEventImpl(Component.java:4872)
	at java.awt.Container.dispatchEventImpl(Container.java:2287)
	at java.awt.Component.dispatchEvent(Component.java:4698)
	at java.awt.KeyboardFocusManager.redispatchEvent(KeyboardFocusManager.java:1887)
	at java.awt.DefaultKeyboardFocusManager.dispatchKeyEvent(DefaultKeyboardFocusManager.java:762)
	at java.awt.DefaultKeyboardFocusManager.preDispatchKeyEvent(DefaultKeyboardFocusManager.java:1027)
	at java.awt.DefaultKeyboardFocusManager.typeAheadAssertions(DefaultKeyboardFocusManager.java:899)
	at java.awt.DefaultKeyboardFocusManager.dispatchEvent(DefaultKeyboardFocusManager.java:727)
	at java.awt.Component.dispatchEventImpl(Component.java:4742)
	at java.awt.Container.dispatchEventImpl(Container.java:2287)
	at java.awt.Window.dispatchEventImpl(Window.java:2719)
	at java.awt.Component.dispatchEvent(Component.java:4698)
	at java.awt.EventQueue.dispatchEventImpl(EventQueue.java:747)
	at java.awt.EventQueue.access$300(EventQueue.java:103)
	at java.awt.EventQueue$3.run(EventQueue.java:706)
	at java.awt.EventQueue$3.run(EventQueue.java:704)
	at java.security.AccessController.doPrivileged(Native Method)
	at java.security.ProtectionDomain$1.doIntersectionPrivilege(ProtectionDomain.java:76)
	at java.security.ProtectionDomain$1.doIntersectionPrivilege(ProtectionDomain.java:87)
	at java.awt.EventQueue$4.run(EventQueue.java:720)
	at java.awt.EventQueue$4.run(EventQueue.java:718)
	at java.security.AccessController.doPrivileged(Native Method)
	at java.security.ProtectionDomain$1.doIntersectionPrivilege(ProtectionDomain.java:76)
	at java.awt.EventQueue.dispatchEvent(EventQueue.java:717)
	at java.awt.EventDispatchThread.pumpOneEventForFilters(EventDispatchThread.java:242)
	at java.awt.EventDispatchThread.pumpEventsForFilter(EventDispatchThread.java:161)
	at java.awt.EventDispatchThread.pumpEventsForHierarchy(EventDispatchThread.java:150)
	at java.awt.EventDispatchThread.pumpEvents(EventDispatchThread.java:146)
	at java.awt.EventDispatchThread.pumpEvents(EventDispatchThread.java:138)
	at java.awt.EventDispatchThread.run(EventDispatchThread.java:91)
[ INFO] (20180130 08:14:36,336) - Autocompletar - dato a buscar dw4jco
[ INFO] (20180130 08:14:36,337) - Autocompletar - nuevo dato dw4jco
[ERROR] (20180130 08:14:36,543) - Autocompletar - error al obtener la posicion del vector
java.lang.StringIndexOutOfBoundsException: String index out of range: 7
	at java.lang.String.substring(String.java:1907)
	at com.develcom.gui.tools.Autocompletar.getPosicionLista(Autocompletar.java:82)
	at com.develcom.gui.tools.Autocompletar.getTextoListaUsuario(Autocompletar.java:50)
	at com.develcom.gui.Login.txtUsuarioKeyReleased(Login.java:569)
	at com.develcom.gui.Login.access$500(Login.java:31)
	at com.develcom.gui.Login$6.keyReleased(Login.java:174)
	at java.awt.Component.processKeyEvent(Component.java:6477)
	at javax.swing.JComponent.processKeyEvent(JComponent.java:2829)
	at java.awt.Component.processEvent(Component.java:6293)
	at java.awt.Container.processEvent(Container.java:2229)
	at java.awt.Component.dispatchEventImpl(Component.java:4872)
	at java.awt.Container.dispatchEventImpl(Container.java:2287)
	at java.awt.Component.dispatchEvent(Component.java:4698)
	at java.awt.KeyboardFocusManager.redispatchEvent(KeyboardFocusManager.java:1887)
	at java.awt.DefaultKeyboardFocusManager.dispatchKeyEvent(DefaultKeyboardFocusManager.java:762)
	at java.awt.DefaultKeyboardFocusManager.preDispatchKeyEvent(DefaultKeyboardFocusManager.java:1027)
	at java.awt.DefaultKeyboardFocusManager.typeAheadAssertions(DefaultKeyboardFocusManager.java:899)
	at java.awt.DefaultKeyboardFocusManager.dispatchEvent(DefaultKeyboardFocusManager.java:727)
	at java.awt.Component.dispatchEventImpl(Component.java:4742)
	at java.awt.Container.dispatchEventImpl(Container.java:2287)
	at java.awt.Window.dispatchEventImpl(Window.java:2719)
	at java.awt.Component.dispatchEvent(Component.java:4698)
	at java.awt.EventQueue.dispatchEventImpl(EventQueue.java:747)
	at java.awt.EventQueue.access$300(EventQueue.java:103)
	at java.awt.EventQueue$3.run(EventQueue.java:706)
	at java.awt.EventQueue$3.run(EventQueue.java:704)
	at java.security.AccessController.doPrivileged(Native Method)
	at java.security.ProtectionDomain$1.doIntersectionPrivilege(ProtectionDomain.java:76)
	at java.security.ProtectionDomain$1.doIntersectionPrivilege(ProtectionDomain.java:87)
	at java.awt.EventQueue$4.run(EventQueue.java:720)
	at java.awt.EventQueue$4.run(EventQueue.java:718)
	at java.security.AccessController.doPrivileged(Native Method)
	at java.security.ProtectionDomain$1.doIntersectionPrivilege(ProtectionDomain.java:76)
	at java.awt.EventQueue.dispatchEvent(EventQueue.java:717)
	at java.awt.EventDispatchThread.pumpOneEventForFilters(EventDispatchThread.java:242)
	at java.awt.EventDispatchThread.pumpEventsForFilter(EventDispatchThread.java:161)
	at java.awt.EventDispatchThread.pumpEventsForHierarchy(EventDispatchThread.java:150)
	at java.awt.EventDispatchThread.pumpEvents(EventDispatchThread.java:146)
	at java.awt.EventDispatchThread.pumpEvents(EventDispatchThread.java:138)
	at java.awt.EventDispatchThread.run(EventDispatchThread.java:91)
[ INFO] (20180130 08:14:36,547) - Autocompletar - dato a buscar dw4jcon
[ INFO] (20180130 08:14:36,548) - Autocompletar - nuevo dato dw4jcon
[ERROR] (20180130 08:14:36,802) - Autocompletar - error al obtener la posicion del vector
java.lang.StringIndexOutOfBoundsException: String index out of range: 8
	at java.lang.String.substring(String.java:1907)
	at com.develcom.gui.tools.Autocompletar.getPosicionLista(Autocompletar.java:82)
	at com.develcom.gui.tools.Autocompletar.getTextoListaUsuario(Autocompletar.java:50)
	at com.develcom.gui.Login.txtUsuarioKeyReleased(Login.java:569)
	at com.develcom.gui.Login.access$500(Login.java:31)
	at com.develcom.gui.Login$6.keyReleased(Login.java:174)
	at java.awt.Component.processKeyEvent(Component.java:6477)
	at javax.swing.JComponent.processKeyEvent(JComponent.java:2829)
	at java.awt.Component.processEvent(Component.java:6293)
	at java.awt.Container.processEvent(Container.java:2229)
	at java.awt.Component.dispatchEventImpl(Component.java:4872)
	at java.awt.Container.dispatchEventImpl(Container.java:2287)
	at java.awt.Component.dispatchEvent(Component.java:4698)
	at java.awt.KeyboardFocusManager.redispatchEvent(KeyboardFocusManager.java:1887)
	at java.awt.DefaultKeyboardFocusManager.dispatchKeyEvent(DefaultKeyboardFocusManager.java:762)
	at java.awt.DefaultKeyboardFocusManager.preDispatchKeyEvent(DefaultKeyboardFocusManager.java:1027)
	at java.awt.DefaultKeyboardFocusManager.typeAheadAssertions(DefaultKeyboardFocusManager.java:899)
	at java.awt.DefaultKeyboardFocusManager.dispatchEvent(DefaultKeyboardFocusManager.java:727)
	at java.awt.Component.dispatchEventImpl(Component.java:4742)
	at java.awt.Container.dispatchEventImpl(Container.java:2287)
	at java.awt.Window.dispatchEventImpl(Window.java:2719)
	at java.awt.Component.dispatchEvent(Component.java:4698)
	at java.awt.EventQueue.dispatchEventImpl(EventQueue.java:747)
	at java.awt.EventQueue.access$300(EventQueue.java:103)
	at java.awt.EventQueue$3.run(EventQueue.java:706)
	at java.awt.EventQueue$3.run(EventQueue.java:704)
	at java.security.AccessController.doPrivileged(Native Method)
	at java.security.ProtectionDomain$1.doIntersectionPrivilege(ProtectionDomain.java:76)
	at java.security.ProtectionDomain$1.doIntersectionPrivilege(ProtectionDomain.java:87)
	at java.awt.EventQueue$4.run(EventQueue.java:720)
	at java.awt.EventQueue$4.run(EventQueue.java:718)
	at java.security.AccessController.doPrivileged(Native Method)
	at java.security.ProtectionDomain$1.doIntersectionPrivilege(ProtectionDomain.java:76)
	at java.awt.EventQueue.dispatchEvent(EventQueue.java:717)
	at java.awt.EventDispatchThread.pumpOneEventForFilters(EventDispatchThread.java:242)
	at java.awt.EventDispatchThread.pumpEventsForFilter(EventDispatchThread.java:161)
	at java.awt.EventDispatchThread.pumpEventsForHierarchy(EventDispatchThread.java:150)
	at java.awt.EventDispatchThread.pumpEvents(EventDispatchThread.java:146)
	at java.awt.EventDispatchThread.pumpEvents(EventDispatchThread.java:138)
	at java.awt.EventDispatchThread.run(EventDispatchThread.java:91)
[ INFO] (20180130 08:14:36,806) - Autocompletar - dato a buscar dw4jconf
[ INFO] (20180130 08:14:36,807) - Autocompletar - nuevo dato dw4jconf
[ INFO] (20180130 08:14:40,122) - Login - ingresando el usuario dw4jconf
[ INFO] (20180130 08:14:40,122) - Login - validando el usuario
[ INFO] (20180130 08:14:40,128) - (lib) IniciaSesion - Comprobando el usuario dw4jconf
[ INFO] (20180130 08:14:40,285) - (lib) Configuracion - cargando el archivo de propiedades
[ INFO] (20180130 08:14:40,286) - (lib) Configuracion - ruta con archivo F:\NetBeansProjects\Develcom-0.4 - MinFinazas\DW4JDesktop/lib/lib.properties
[ INFO] (20180130 08:14:40,287) - (lib) Propiedades - propiedades cargadas {puerto=8080, ip=localhost}
[ INFO] (20180130 08:14:40,288) - (lib) AutenticaServicio - servidor localhost
[ INFO] (20180130 08:14:40,289) - (lib) AutenticaServicio - puerto 8080
[ INFO] (20180130 08:14:40,981) - Login - Calidad activo false
[ INFO] (20180130 08:14:40,982) - Login - foliatura activo false
[ INFO] (20180130 08:14:40,982) - Login - creando la sesion del usuario
[ INFO] (20180130 08:14:40,986) - (lib) IniciaSesion - Creando sesion del usuario dw4jconf
[ INFO] (20180130 08:14:41,007) - (lib) Configuracion - cargando el archivo de propiedades
[ INFO] (20180130 08:14:41,007) - (lib) Configuracion - ruta con archivo F:\NetBeansProjects\Develcom-0.4 - MinFinazas\DW4JDesktop/lib/lib.properties
[ INFO] (20180130 08:14:41,007) - (lib) Propiedades - propiedades cargadas {puerto=8080, ip=localhost}
[ INFO] (20180130 08:14:41,007) - (lib) AutenticaServicio - servidor localhost
[ INFO] (20180130 08:14:41,007) - (lib) AutenticaServicio - puerto 8080
[ INFO] (20180130 08:14:41,455) - Login - sesion [com.develcom.autentica.Sesion@1c6b7657, com.develcom.autentica.Sesion@53265854]
[ INFO] (20180130 08:14:41,467) - Login - id de la sesion 5632A23A165C85DE9DD7A48EF9373C7B
[ INFO] (20180130 08:14:41,467) - Login - fecha y hora de inicio de la sesion 30/01/2018 - 08:44:41
[ INFO] (20180130 08:14:44,107) - (lib) Configuracion - cargando el archivo de propiedades
[ INFO] (20180130 08:14:44,107) - (lib) Configuracion - ruta con archivo F:\NetBeansProjects\Develcom-0.4 - MinFinazas\DW4JDesktop/lib/lib.properties
[ INFO] (20180130 08:14:44,108) - (lib) Propiedades - propiedades cargadas {puerto=8080, ip=localhost}
[ INFO] (20180130 08:14:44,108) - (lib) MantenimientosServicio - servidor localhost
[ INFO] (20180130 08:14:44,108) - (lib) MantenimientosServicio - puerto 8080
[ INFO] (20180130 08:14:44,613) - CentraVentanas - sistema operativo Windows 8.1
[ INFO] (20180130 08:14:47,919) - (lib) Configuracion - cargando el archivo de propiedades
[ INFO] (20180130 08:14:47,919) - (lib) Configuracion - ruta con archivo F:\NetBeansProjects\Develcom-0.4 - MinFinazas\DW4JDesktop/lib/lib.properties
[ INFO] (20180130 08:14:47,920) - (lib) Propiedades - propiedades cargadas {puerto=8080, ip=localhost}
[ INFO] (20180130 08:14:47,920) - (lib) MantenimientosServicio - servidor localhost
[ INFO] (20180130 08:14:47,920) - (lib) MantenimientosServicio - puerto 8080
[ INFO] (20180130 08:14:48,257) - Mantenimiento - respuesta al realizar el mantenimiento true
[ INFO] (20180130 08:15:03,609) - (lib) Configuracion - cargando el archivo de propiedades
[ INFO] (20180130 08:15:03,609) - (lib) Configuracion - ruta con archivo F:\NetBeansProjects\Develcom-0.4 - MinFinazas\DW4JDesktop/lib/lib.properties
[ INFO] (20180130 08:15:03,609) - (lib) Propiedades - propiedades cargadas {puerto=8080, ip=localhost}
[ INFO] (20180130 08:15:03,609) - (lib) MantenimientosServicio - servidor localhost
[ INFO] (20180130 08:15:03,609) - (lib) MantenimientosServicio - puerto 8080
[ INFO] (20180130 08:15:04,095) - CentraVentanas - sistema operativo Windows 8.1
[ INFO] (20180130 08:15:06,830) - (lib) Configuracion - cargando el archivo de propiedades
[ INFO] (20180130 08:15:06,831) - (lib) Configuracion - ruta con archivo F:\NetBeansProjects\Develcom-0.4 - MinFinazas\DW4JDesktop/lib/lib.properties
[ INFO] (20180130 08:15:06,831) - (lib) Propiedades - propiedades cargadas {puerto=8080, ip=localhost}
[ INFO] (20180130 08:15:06,831) - (lib) MantenimientosServicio - servidor localhost
[ INFO] (20180130 08:15:06,831) - (lib) MantenimientosServicio - puerto 8080
[ INFO] (20180130 08:15:07,212) - Mantenimiento - respuesta al realizar el mantenimiento true
[ INFO] (20180130 08:15:21,655) - (lib) Configuracion - cargando el archivo de propiedades
[ INFO] (20180130 08:15:21,656) - (lib) Configuracion - ruta con archivo F:\NetBeansProjects\Develcom-0.4 - MinFinazas\DW4JDesktop/lib/lib.properties
[ INFO] (20180130 08:15:21,656) - (lib) Propiedades - propiedades cargadas {puerto=8080, ip=localhost}
[ INFO] (20180130 08:15:21,656) - (lib) AutenticaServicio - servidor localhost
[ INFO] (20180130 08:15:21,657) - (lib) AutenticaServicio - puerto 8080
[ INFO] (20180130 08:15:22,104) - Login - usuario asalmeron su estatus 1
[ INFO] (20180130 08:15:22,104) - Login - usuario asanchez su estatus 1
[ INFO] (20180130 08:15:22,104) - Login - usuario daniel su estatus 1
[ INFO] (20180130 08:15:22,104) - Login - usuario eescalona su estatus 1
[ INFO] (20180130 08:15:22,105) - Login - usuario emichelena su estatus 1
[ INFO] (20180130 08:15:22,105) - Login - usuario fgonzalez su estatus 1
[ INFO] (20180130 08:15:22,105) - Login - usuario mmoreno su estatus 1
[ INFO] (20180130 08:15:22,105) - Login - usuario nilda_blanco su estatus 1
[ INFO] (20180130 08:15:22,105) - Login - usuario pdigitalizador su estatus 1
[ INFO] (20180130 08:15:22,105) - Login - usuario rcarrillo su estatus 1
[ INFO] (20180130 08:15:22,105) - Login - usuario rfernandez su estatus 1
[ INFO] (20180130 08:15:22,106) - Login - usuario tgarrido su estatus 1
[ INFO] (20180130 08:15:22,106) - Login - usuario thais su estatus 1
[ INFO] (20180130 08:15:22,106) - Login - usuario ydiaz su estatus 1
[ INFO] (20180130 08:15:22,106) - Login - usuario ylara su estatus 1
[ INFO] (20180130 08:15:22,110) - DW4JDesktop - iniciando la aplicacion Gestor Documental bienvenido
[ INFO] (20180130 08:15:22,110) - DW4JDesktop - maximo memoria 1875378176
[ INFO] (20180130 08:15:22,110) - DW4JDesktop - memoria disponible 113304800
[ INFO] (20180130 08:15:22,111) - DW4JDesktop - total memoria 126353408
[ INFO] (20180130 08:15:28,972) - Autocompletar - posicion 11
[ INFO] (20180130 08:15:28,972) - Autocompletar - nuevo dato tgarrido
[ INFO] (20180130 08:15:28,973) - Autocompletar - dato buscado garrido
[ INFO] (20180130 08:15:30,999) - Login - ingresando el usuario tgarrido
[ INFO] (20180130 08:15:30,999) - Login - validando el usuario
[ INFO] (20180130 08:15:31,003) - (lib) IniciaSesion - Comprobando el usuario tgarrido
[ INFO] (20180130 08:15:31,011) - (lib) Configuracion - cargando el archivo de propiedades
[ INFO] (20180130 08:15:31,011) - (lib) Configuracion - ruta con archivo F:\NetBeansProjects\Develcom-0.4 - MinFinazas\DW4JDesktop/lib/lib.properties
[ INFO] (20180130 08:15:31,012) - (lib) Propiedades - propiedades cargadas {puerto=8080, ip=localhost}
[ INFO] (20180130 08:15:31,012) - (lib) AutenticaServicio - servidor localhost
[ INFO] (20180130 08:15:31,012) - (lib) AutenticaServicio - puerto 8080
[ INFO] (20180130 08:15:31,739) - Login - Calidad activo false
[ INFO] (20180130 08:15:31,739) - Login - foliatura activo false
[ INFO] (20180130 08:15:31,739) - Login - creando la sesion del usuario
[ INFO] (20180130 08:15:31,745) - (lib) IniciaSesion - Creando sesion del usuario tgarrido
[ INFO] (20180130 08:15:31,751) - (lib) Configuracion - cargando el archivo de propiedades
[ INFO] (20180130 08:15:31,751) - (lib) Configuracion - ruta con archivo F:\NetBeansProjects\Develcom-0.4 - MinFinazas\DW4JDesktop/lib/lib.properties
[ INFO] (20180130 08:15:31,752) - (lib) Propiedades - propiedades cargadas {puerto=8080, ip=localhost}
[ INFO] (20180130 08:15:31,752) - (lib) AutenticaServicio - servidor localhost
[ INFO] (20180130 08:15:31,752) - (lib) AutenticaServicio - puerto 8080
[ INFO] (20180130 08:15:32,222) - Login - sesion [com.develcom.autentica.Sesion@97faec2, com.develcom.autentica.Sesion@1daa476d, com.develcom.autentica.Sesion@16375452, com.develcom.autentica.Sesion@a80dee3, com.develcom.autentica.Sesion@12a90e78, com.develcom.autentica.Sesion@18f4f1da]
[ INFO] (20180130 08:15:32,231) - Login - id de la sesion 85BF5982320B378B5877A5D7FEC8941B
[ INFO] (20180130 08:15:32,231) - Login - fecha y hora de inicio de la sesion 30/01/2018 - 08:45:32
[ INFO] (20180130 08:15:35,997) - LibreriaReportes - llenando lista de libreria
[ INFO] (20180130 08:15:35,997) - LibreriaReportes - buscando las libreria del usuario tgarrido con el perfil REPORTES
[ INFO] (20180130 08:15:36,006) - (lib) Configuracion - cargando el archivo de propiedades
[ INFO] (20180130 08:15:36,006) - (lib) Configuracion - ruta con archivo F:\NetBeansProjects\Develcom-0.4 - MinFinazas\DW4JDesktop/lib/lib.properties
[ INFO] (20180130 08:15:36,006) - (lib) Propiedades - propiedades cargadas {puerto=8080, ip=localhost}
[ INFO] (20180130 08:15:36,007) - (lib) AutenticaServicio - servidor localhost
[ INFO] (20180130 08:15:36,007) - (lib) AutenticaServicio - puerto 8080
[ INFO] (20180130 08:15:36,433) - LibreriaReportes - tamaño perfiles 1
[ INFO] (20180130 08:15:36,434) - CentraVentanas - sistema operativo Windows 8.1
[ INFO] (20180130 08:15:38,504) - LibreriaReportes - llenando lista de categorias
[ INFO] (20180130 08:15:43,959) - LibreriaReportes - armando informacion del reporte
[ INFO] (20180130 08:15:43,960) - LibreriaReportes - libreria seleccionada 01 - EXPEDIENTES DE PAGO DE PRESTACIONES SOCIALES
[ INFO] (20180130 08:15:43,960) - LibreriaReportes - categoria seleccionada 0000-EHP-FDPS (EXPEDIENTES HISTORICOS DE PAGOS DEL FONDO DE PRESTACIONES SOCIALES)
[ INFO] (20180130 08:15:43,961) - LibreriaReportes - seleccion la libreria 01 - EXPEDIENTES DE PAGO DE PRESTACIONES SOCIALES id 107
[ INFO] (20180130 08:15:43,961) - LibreriaReportes - seleccion la categoria 0000-EHP-FDPS (EXPEDIENTES HISTORICOS DE PAGOS DEL FONDO DE PRESTACIONES SOCIALES) id 170
[ INFO] (20180130 08:15:43,961) - LibreriaReportes - generando el reporte  Reporte Documentos Pendientes por Aprobar
[ INFO] (20180130 08:15:43,977) - ConstruyeConsultas - libreria 01 - EXPEDIENTES DE PAGO DE PRESTACIONES SOCIALES categoria 0000-EHP-FDPS (EXPEDIENTES HISTORICOS DE PAGOS DEL FONDO DE PRESTACIONES SOCIALES)
[ INFO] (20180130 08:15:43,983) - (lib) BuscaIndice - buscar los argumento 170
[ INFO] (20180130 08:15:43,994) - (lib) Configuracion - cargando el archivo de propiedades
[ INFO] (20180130 08:15:43,994) - (lib) Configuracion - ruta con archivo F:\NetBeansProjects\Develcom-0.4 - MinFinazas\DW4JDesktop/lib/lib.properties
[ INFO] (20180130 08:15:43,995) - (lib) Propiedades - propiedades cargadas {puerto=8080, ip=localhost}
[ INFO] (20180130 08:15:43,995) - (lib) AdministracionBusquedasServicio - servidor localhost
[ INFO] (20180130 08:15:43,995) - (lib) AdministracionBusquedasServicio - puerto 8080
[ INFO] (20180130 08:15:44,531) - ConstruyeConsultas - indice 1 CEDULA_DE_IDENTIDAD_DE_EMPLEADO
[ INFO] (20180130 08:15:44,532) - ConstruyeConsultas - indice 2 NUMERO_DE_SOLICITUD_U_OFICIO
[ INFO] (20180130 08:15:44,532) - ConstruyeConsultas - indice 3 APELLIDOS_Y_NOMBRES_DE_EMPLEADO
[ INFO] (20180130 08:15:44,532) - ConstruyeConsultas - indice 4 ORGANISMO_PRINCIPAL
[ INFO] (20180130 08:15:44,540) - (lib) Configuracion - cargando el archivo de propiedades
[ INFO] (20180130 08:15:44,540) - (lib) Configuracion - ruta con archivo F:\NetBeansProjects\Develcom-0.4 - MinFinazas\DW4JDesktop/lib/lib.properties
[ INFO] (20180130 08:15:44,540) - (lib) Propiedades - propiedades cargadas {puerto=8080, ip=localhost}
[ INFO] (20180130 08:15:44,541) - (lib) FoliaturaServicio - servidor localhost
[ INFO] (20180130 08:15:44,541) - (lib) FoliaturaServicio - puerto 8080
